{"results":[{"popularity":329.527,"vote_count":456,"video":false,"poster_path":"\/aQvJ5WPzZgYVDrxLX4R6cLJCEaQ.jpg","id":454626,"adult":false,"backdrop_path":"\/qonBhlm0UjuKX2sH7e73pnG0454.jpg","original_language":"en","original_title":"Sonic the Hedgehog","genre_ids":[28,35,878,10751],"title":"Sonic the Hedgehog","vote_average":7.1,"overview":"Based on the global blockbuster videogame franchise from Sega, Sonic the Hedgehog tells the story of the world’s speediest hedgehog as he embraces his new home on Earth. In this live-action adventure comedy, Sonic and his new best friend team up to defend the planet from the evil genius Dr. Robotnik and his plans for world domination.","release_date":"2020-02-12"},{"popularity":230.853,"vote_count":4525,"video":false,"poster_path":"\/7IiTTgloJzvGI1TAYymCfbfl3vT.jpg","id":496243,"adult":false,"backdrop_path":"\/TU9NIjwzjoKPwQHoHshkFcQUCG.jpg","original_language":"ko","original_title":"기생충","genre_ids":[35,18,53],"title":"Parasite","vote_average":8.6,"overview":"All unemployed, Ki-taek's family takes peculiar interest in the wealthy and glamorous Parks for their livelihood until they get entangled in an unexpected incident.","release_date":"2019-05-30"},{"popularity":177.996,"vote_count":842,"video":false,"poster_path":"\/h4VB6m0RwcicVEZvzftYZyKXs6K.jpg","id":495764,"adult":false,"backdrop_path":"\/uozb2VeD87YmhoUP1RrGWfzuCrr.jpg","original_language":"en","original_title":"Birds of Prey (and the Fantabulous Emancipation of One Harley Quinn)","genre_ids":[28,35,80],"title":"Birds of Prey (and the Fantabulous Emancipation of One Harley Quinn)","vote_average":6.8,"overview":"After her breakup with the Joker, Harley Quinn joins forces with singer Black Canary, assassin Huntress, and police detective Renee Montoya to help a young girl named Cassandra, who had a hit placed on her after she stole a rare diamond from crime lord Roman Sionis.","release_date":"2020-02-05"},{"popularity":219.898,"vote_count":1688,"video":false,"poster_path":"\/jyw8VKYEiM1UDzPB7NsisUgBeJ8.jpg","id":512200,"adult":false,"backdrop_path":"\/zTxHf9iIOCqRbxvl8W5QYKrsMLq.jpg","original_language":"en","original_title":"Jumanji: The Next Level","genre_ids":[28,12,35,14],"title":"Jumanji: The Next Level","vote_average":6.7,"overview":"As the gang return to Jumanji to rescue one of their own, they discover that nothing is as they expect. The players will have to brave parts unknown and unexplored in order to escape the world’s most dangerous game.","release_date":"2019-12-04"},{"popularity":130.716,"vote_count":85,"video":false,"poster_path":"\/33VdppGbeNxICrFUtW2WpGHvfYc.jpg","id":481848,"adult":false,"backdrop_path":"\/yFRpUmsreYO5Bc0HVBTsJsHIIox.jpg","original_language":"en","original_title":"The Call of the Wild","genre_ids":[12,18,10751],"title":"The Call of the Wild","vote_average":6,"overview":"A sled dog struggles for survival in the wilds of the Yukon.","release_date":"2020-02-19"},{"popularity":119.503,"vote_count":9410,"video":false,"poster_path":"\/udDclJoHjfjb8Ekgsd4FDteOkCU.jpg","id":475557,"adult":false,"backdrop_path":"\/n6bUvigpRFqSwmPp1m2YADdbRBc.jpg","original_language":"en","original_title":"Joker","genre_ids":[80,18,53],"title":"Joker","vote_average":8.2,"overview":"During the 1980s, a failed stand-up comedian is driven insane and turns to a life of crime and chaos in Gotham City while becoming an infamous psychopathic crime figure.","release_date":"2019-10-02"},{"popularity":112.594,"vote_count":2359,"video":false,"poster_path":"\/pThyQovXQrw2m0s9x82twj48Jq4.jpg","id":546554,"adult":false,"backdrop_path":"\/cjTQSwcsfVdirSFSHNBXRGkxmWa.jpg","original_language":"en","original_title":"Knives Out","genre_ids":[35,80,18,9648,53],"title":"Knives Out","vote_average":7.8,"overview":"When renowned crime novelist Harlan Thrombey is found dead at his estate just after his 85th birthday, the inquisitive and debonair Detective Benoit Blanc is mysteriously enlisted to investigate. From Harlan's dysfunctional family to his devoted staff, Blanc sifts through a web of red herrings and self-serving lies to uncover the truth behind Harlan's untimely death.","release_date":"2019-11-27"},{"popularity":105.704,"vote_count":962,"video":false,"poster_path":"\/y95lQLnuNKdPAzw9F9Ab8kJ80c3.jpg","id":38700,"adult":false,"backdrop_path":"\/upUy2QhMZEmtypPW3PdieKLAHxh.jpg","original_language":"en","original_title":"Bad Boys for Life","genre_ids":[28,80,53],"title":"Bad Boys for Life","vote_average":6.4,"overview":"Marcus and Mike are forced to confront new threats, career changes, and midlife crises as they join the newly created elite team AMMO of the Miami police department to take down the ruthless Armando Armas, the vicious leader of a Miami drug cartel.","release_date":"2020-01-15"},{"popularity":116.483,"vote_count":478,"video":false,"poster_path":"\/1DPUFG6QnGqzpvEaDEv7TaepycM.jpg","id":458897,"adult":false,"backdrop_path":"\/a0xTB1vBxMGt6LGG4N7k1wO9lfL.jpg","original_language":"en","original_title":"Charlie's Angels","genre_ids":[28,12,35],"title":"Charlie's Angels","vote_average":6.4,"overview":"When a systems engineer blows the whistle on a dangerous technology, Charlie's Angels from across the globe are called into action, putting their lives on the line to protect society.","release_date":"2019-11-14"},{"popularity":71.175,"vote_count":491,"video":false,"poster_path":"\/5eNiYMu2GXCtNlDwMcJqKGVwyoX.jpg","id":448119,"adult":false,"backdrop_path":"\/lG802rseTZcN9mtLsQPVfApEVzM.jpg","original_language":"en","original_title":"Dolittle","genre_ids":[12,35,14,10751],"title":"Dolittle","vote_average":6.4,"overview":"After losing his wife seven years earlier, the eccentric Dr. John Dolittle, famed doctor and veterinarian of Queen Victoria’s England, hermits himself away behind the high walls of Dolittle Manor with only his menagerie of exotic animals for company. But when the young queen catches the coronavirus, a reluctant Dolittle is forced to set sail on an epic adventure to a mythical island in search of a cure, regaining his wit and courage as he crosses old adversaries and discovers wondrous creatures.","release_date":"2020-01-01"},{"popularity":81.271,"vote_count":2855,"video":false,"poster_path":"\/AuGiPiGMYMkSosOJ3BQjDEAiwtO.jpg","id":530915,"adult":false,"backdrop_path":"\/cqa3sa4c4jevgnEJwq3CMF8UfTG.jpg","original_language":"en","original_title":"1917","genre_ids":[28,18,10752],"title":"1917","vote_average":8,"overview":"At the height of the First World War, two young British soldiers must cross enemy territory and deliver a message that will stop a deadly attack on hundreds of soldiers.","release_date":"2019-12-10"},{"popularity":101.121,"vote_count":25,"video":false,"poster_path":"\/4U7hpTK0XTQBKT5X60bKmJd05ha.jpg","id":570670,"adult":false,"backdrop_path":"\/q5t01d3MBFFsjwRjoS61LxXEEOr.jpg","original_language":"en","original_title":"The Invisible Man","genre_ids":[27,9648,878,53],"title":"The Invisible Man","vote_average":7.8,"overview":"When Cecilia's abusive ex takes his own life and leaves her his fortune, she suspects his death was a hoax. As a series of coincidences turn lethal, Cecilia works to prove that she is being hunted by someone nobody can see.","release_date":"2020-02-26"},{"popularity":65.01,"vote_count":2098,"video":false,"poster_path":"\/7GsM4mtM0worCtIVeiQt28HieeN.jpg","id":515001,"adult":false,"backdrop_path":"\/agoBZfL1q5G79SD0npArSlJn8BH.jpg","original_language":"en","original_title":"Jojo Rabbit","genre_ids":[35,18,10752],"title":"Jojo Rabbit","vote_average":8.1,"overview":"A World War II satire that follows a lonely German boy whose world view is turned upside down when he discovers his single mother is hiding a young Jewish girl in their attic. Aided only by his idiotic imaginary friend, Adolf Hitler, Jojo must confront his blind nationalism.","release_date":"2019-10-18"},{"popularity":52.913,"vote_count":148,"video":false,"poster_path":"\/hJ6YEbrjFvToa5c7IiUqILoB6Je.jpg","id":552178,"adult":false,"backdrop_path":"\/4ZSlTfkHtgTTupCaLbseXQQzZha.jpg","original_language":"en","original_title":"Dark Waters","genre_ids":[18],"title":"Dark Waters","vote_average":7.4,"overview":"A tenacious attorney uncovers a dark secret that connects a growing number of unexplained deaths due to one of the world's largest corporations. In the process, he risks everything — his future, his family, and his own life — to expose the truth.","release_date":"2019-11-22"},{"popularity":54.814,"vote_count":24,"video":false,"poster_path":"\/tIpGQ9uuII7QVFF0GHCFTJFfXve.jpg","id":555974,"adult":false,"backdrop_path":"\/rpGYHowXtjw37UxdwO1ZcK5E8IN.jpg","original_language":"en","original_title":"Brahms: The Boy II","genre_ids":[27,9648,53],"title":"Brahms: The Boy II","vote_average":6,"overview":"After a family moves into the Heelshire Mansion, their young son soon makes friends with a life-like doll called Brahms.","release_date":"2020-02-20"},{"popularity":75.763,"vote_count":31,"video":false,"poster_path":"\/qZ1KAgfdeNbzrNYKW4BIRHdEBJ9.jpg","id":666750,"adult":false,"backdrop_path":"\/6mKAKhj8POVGqV1GsroS5mGIUe9.jpg","original_language":"en","original_title":"Dragonheart: Vengeance","genre_ids":[14],"title":"Dragonheart: Vengeance","vote_average":6.3,"overview":"Lukas, a young farmer whose family is killed by savage raiders in the countryside, sets out on an epic quest for revenge, forming an unlikely trio with a majestic dragon and a swashbuckling, sword-fighting mercenary, Darius.","release_date":"2020-02-04"},{"popularity":48.75,"vote_count":120,"video":false,"poster_path":"\/yqZdRSC6wfX6AGtBPfGbpvmNKag.jpg","id":539537,"adult":false,"backdrop_path":"\/dzfiE2VHY362dGI62XfZ2iI87CT.jpg","original_language":"en","original_title":"Fantasy Island","genre_ids":[14,27,878],"title":"Fantasy Island","vote_average":4.8,"overview":"A group of contest winners arrive at an island hotel to live out their dreams, only to find themselves trapped in nightmare scenarios.","release_date":"2020-02-12"},{"popularity":39.677,"vote_count":82,"video":false,"poster_path":"\/vkwgzCBBiY3C1XEy0WakYfMOvnG.jpg","id":548473,"adult":false,"backdrop_path":"\/iyn2JQsftaqhQlXYaCCvn8udM5i.jpg","original_language":"en","original_title":"Color Out of Space","genre_ids":[27,878],"title":"Color Out of Space","vote_average":6.4,"overview":"The Gardner family moves to a remote farmstead in rural New England to escape the hustle of the 21st century. They are busy adapting to their new life when a meteorite crashes into their front yard, melts into the earth, and infects both the land and the properties of space-time with a strange, otherworldly colour. To their horror, the family discovers this alien force is gradually mutating every life form that it touches—including them.","release_date":"2019-09-24"},{"popularity":37.445,"vote_count":24619,"video":false,"poster_path":"\/qmDpIHrmpJINaRKAfWQfftjCdyi.jpg","id":27205,"adult":false,"backdrop_path":"\/s2bT29y0ngXxxu2IA8AOzzXTRhd.jpg","original_language":"en","original_title":"Inception","genre_ids":[28,12,878],"title":"Inception","vote_average":8.3,"overview":"Cobb, a skilled thief who commits corporate espionage by infiltrating the subconscious of his targets is offered a chance to regain his old life as payment for a task considered to be impossible: \"inception\", the implantation of another person's idea into a target's subconscious.","release_date":"2010-07-15"},{"popularity":43.588,"vote_count":3,"video":false,"poster_path":"\/sN8sfiGZV6PDP7kafMqrSuKUtOM.jpg","id":457335,"adult":false,"backdrop_path":"\/lEolXbxv14PdZFTw7jZMJQn4lMK.jpg","original_language":"en","original_title":"Guns Akimbo","genre_ids":[28,35],"title":"Guns Akimbo","vote_average":8.3,"overview":"An ordinary guy suddenly finds himself forced to fight a gladiator-like battle for a dark website that streams the violence for viewers. Miles must fight heavily armed Nix and also save his kidnapped ex-girlfriend.","release_date":"2020-02-27"}],"page":1,"total_results":1094,"dates":{"maximum":"2020-03-04","minimum":"2020-01-16"},"total_pages":55}